describe
…
# Loading the clean data
data <- read_tsv("../data/02_dat_clean.tsv")

Rows: 297 Columns: 14
── Column specification ────────────────────────────────────────────────────────
Delimiter: "\t"
chr (7): sex, cp, fbs, restecg, exang, slope, thal
dbl (7): age, trestbps, chol, thalach, oldpeak, ca, num

ℹ Use `spec()` to retrieve the full column specification for this data.
ℹ Specify the column types or set `show_col_types = FALSE` to quiet this message.

data

# A tibble: 297 × 14
     age sex    cp      trestbps  chol fbs   restecg thalach exang oldpeak slope
   <dbl> <chr>  <chr>      <dbl> <dbl> <chr> <chr>     <dbl> <chr>   <dbl> <chr>
 1    63 male   typica…      145   233 grea… left v…     150 no        2.3 down…
 2    67 male   asympt…      160   286 lowe… left v…     108 yes       1.5 flat 
 3    67 male   asympt…      120   229 lowe… left v…     129 yes       2.6 flat 
 4    37 male   non-an…      130   250 lowe… normal      187 no        3.5 down…
 5    41 female atypic…      130   204 lowe… left v…     172 no        1.4 upsl…
 6    56 male   atypic…      120   236 lowe… normal      178 no        0.8 upsl…
 7    62 female asympt…      140   268 lowe… left v…     160 no        3.6 down…
 8    57 female asympt…      120   354 lowe… normal      163 yes       0.6 upsl…
 9    63 male   asympt…      130   254 lowe… left v…     147 no        1.4 flat 
10    53 male   asympt…      140   203 grea… left v…     155 yes       3.1 down…
# ℹ 287 more rows
# ℹ 3 more variables: ca <dbl>, thal <chr>, num <dbl>
…
